<svg width="1920" height="600" viewBox="0 0 1920 600" fill="none" xmlns="http://www.w3.org/2000/svg">
<g clip-path="url(#clip0_4200_6378)">
<rect width="1920" height="600" fill="#66002E"/>
<g style="mix-blend-mode:soft-light" opacity="0.35">
<path d="M783.627 -2625C-220.517 -2625 -1034 -1810.77 -1034 -806.626C-1034 197.518 -219.769 1011 784.375 1011C1788.52 1011 2602 196.77 2602 -807.374C2602 -1810.77 1788.52 -2625 783.627 -2625ZM358.941 431.544C-90.4192 431.544 -455.29 66.6724 -455.29 -382.688C-455.29 -832.047 -90.4192 -1196.92 358.941 -1196.92C808.301 -1196.92 1173.17 -832.047 1173.17 -382.688C1173.92 66.6724 809.048 431.544 358.941 431.544Z" fill="url(#paint0_linear_4200_6378)"/>
<path d="M644.561 -1885.43C-27.6099 -1885.43 -573.422 -1340.36 -573.422 -667.445C-573.422 -345.94 -446.315 -37.8926 -219.766 190.9C-534.542 -126.867 -533.047 -639.781 -215.28 -954.557C102.488 -1269.33 615.401 -1267.84 930.178 -950.071C1244.95 -632.304 1243.46 -119.39 925.692 195.386C610.167 508.667 100.992 508.667 -215.28 195.386C260.997 670.167 1031.86 668.672 1506.64 192.395C1981.43 -283.882 1979.93 -1054.75 1503.65 -1529.53C1275.61 -1757.57 966.814 -1885.43 644.561 -1885.43Z" fill="url(#paint1_linear_4200_6378)"/>
</g>
</g>
<defs>
<linearGradient id="paint0_linear_4200_6378" x1="-301.119" y1="-1890.24" x2="2022.74" y2="433.081" gradientUnits="userSpaceOnUse">
<stop stop-color="#FF45B8"/>
<stop offset="1" stop-color="#A60054"/>
</linearGradient>
<linearGradient id="paint1_linear_4200_6378" x1="1376.53" y1="59.6841" x2="-174.768" y2="-1491.63" gradientUnits="userSpaceOnUse">
<stop stop-color="#FF45B8"/>
<stop offset="1" stop-color="#A60054"/>
</linearGradient>
<clipPath id="clip0_4200_6378">
<rect width="1920" height="600" fill="white"/>
</clipPath>
</defs>
</svg>
