<svg width="155" height="44" viewBox="0 0 155 44" fill="none" xmlns="http://www.w3.org/2000/svg">
<path d="M0.457321 13.5661C2.43893 13.2338 4.4399 12.9758 6.38923 12.5177C7.55754 12.2432 8.09759 12.6064 8.59675 13.5269C10.9721 17.9355 13.4055 22.3234 15.8153 26.7196C15.9444 26.9528 16.08 27.1819 16.2177 27.4275C16.648 27.2046 16.7276 26.8083 16.9019 26.4843C19.2686 22.15 21.6547 17.7951 23.987 13.4299C24.4302 12.6043 24.8907 12.27 25.9234 12.5135C27.5866 12.9057 29.2971 13.1327 30.9861 13.4196C32.4922 13.6796 32.5159 13.7333 31.8467 15.0212C27.6232 23.0458 23.2404 30.9857 18.8383 38.9277C18.2344 40.0175 17.6305 41.1086 17.0266 42.2011C16.8438 42.5334 16.691 42.9813 16.2585 42.9854C15.8261 42.9895 15.669 42.5169 15.4904 42.1949C11.8901 35.6922 8.29768 29.1853 4.71315 22.6743C3.31892 20.1294 1.98064 17.5557 0.603628 15.0006L0.0356107 13.8922C0.0356107 13.8922 -0.181699 13.6693 0.457321 13.5661Z" fill="#29B0E5"/>
<path d="M89.694 32.8991C89.694 35.7886 89.6638 38.6781 89.7112 41.5553C89.7284 42.5439 89.3562 42.9133 88.3342 42.8782C86.7958 42.8266 85.2531 42.8514 83.7126 42.8617C81.9074 42.8762 81.817 42.8101 81.8192 41.1032C81.8321 36.2592 81.8643 31.4172 81.8579 26.5732C81.8825 25.646 81.8104 24.7188 81.6427 23.8055C81.0446 20.9964 78.8586 19.5909 75.5753 19.8076C72.6276 20.0016 70.4115 22.0656 70.3469 24.9798C70.2308 29.8197 70.2781 34.6659 70.2587 39.5078C70.2587 40.2632 70.2587 41.0207 70.2802 41.7782C70.3018 42.5356 69.9295 42.8927 69.1033 42.8762C67.3476 42.8452 65.592 42.8638 63.8363 42.8576C62.5453 42.8576 62.4141 42.7379 62.4141 41.5098C62.4227 36.0831 62.437 30.6556 62.4571 25.2275C62.4348 23.9909 62.5794 22.7567 62.8874 21.5558C64.372 16.2804 69.2798 12.6169 75.1342 12.3837C78.3895 12.2536 81.5244 12.6602 84.244 14.5178C87.7833 16.9243 89.5154 20.3319 89.6531 24.4494C89.7477 27.2625 89.6724 30.0819 89.6724 32.8991H89.694Z" fill="#29B0E5"/>
<path d="M47.8435 43.0867C53.1816 42.0072 57.048 39.1446 59.3007 34.3521C59.7783 33.3325 59.6406 33.1509 58.4874 33.1488C56.48 33.1488 54.4704 33.1922 52.463 33.1488C52.0387 33.1307 51.6153 33.2001 51.2215 33.3525C50.8276 33.5049 50.4725 33.7367 50.1801 34.0322C45.976 37.8938 39.4007 36.1808 37.7139 30.8249C37.4578 29.9993 37.6709 29.636 38.5745 29.7C38.8241 29.7186 39.078 29.7 39.3276 29.7C45.9587 29.7 52.5906 29.7048 59.2232 29.7145C60.5357 29.7145 60.5916 29.6133 60.6347 28.3543C60.6833 26.2212 60.3133 24.0984 59.5438 22.0965C56.5316 13.9048 46.7355 9.85946 38.4755 13.4445C33.2278 15.7148 27.6466 22.9386 29.7466 31.2645C31.2269 37.1405 34.8738 40.6574 40.9778 42.7895C44.1428 43.8937 47.8435 43.0867 47.8435 43.0867ZM38.6326 23.4215C39.1167 21.6259 41.5114 19.9129 43.9879 19.6177C47.1593 19.2256 49.8725 20.5486 51.6023 23.4215H38.6326Z" fill="#29B0E5"/>
<path d="M139.437 12.2495C130.844 12.2495 123.877 19.2008 123.877 27.7765C123.877 36.3521 130.844 43.3034 139.437 43.3034C148.031 43.3034 155 36.3521 155 27.7765C155 19.2008 148.028 12.2495 139.437 12.2495ZM139.437 36.0652C135.149 36.0652 131.674 32.3501 131.674 27.7765C131.674 23.2028 135.149 19.4877 139.437 19.4877C143.725 19.4877 147.202 23.2028 147.202 27.7765C147.202 32.3501 143.725 36.0652 139.437 36.0652Z" fill="#29B0E5"/>
<path d="M122.64 0.64601C122.639 0.476261 122.569 0.313492 122.445 0.192691C122.321 0.07189 122.152 0.00270223 121.975 0L115.52 0C115.341 -8.69821e-07 115.17 0.0679948 115.043 0.189086C114.916 0.310178 114.845 0.474488 114.844 0.64601V4.89564H114.825C114.825 7.63241 114.825 10.3692 114.825 13.106V15.5166C114.466 15.5724 114.339 15.3722 114.193 15.2442C109.425 11.0957 101.713 11.7974 97.5436 15.1885C93.0145 18.8788 90.8952 23.6506 91.4202 29.345C91.9301 34.8412 94.6476 39.0619 99.8565 41.6707C100.917 42.2032 102.058 42.5087 103.172 42.8802C106.974 43.7966 110.636 42.9236 110.636 42.9236C111.755 42.5789 112.884 42.2652 113.952 41.7574C119.473 39.1259 122.418 34.7979 122.539 28.9817C122.696 21.5185 122.653 14.0512 122.642 6.58394C122.651 6.54111 122.655 6.49755 122.655 6.45391L122.64 0.64601ZM112.958 33.2293C111.058 35.6069 107.983 36.6678 105.158 35.9227C102.161 35.1343 99.7511 32.4409 99.3617 29.5245C98.9507 26.4637 99.5639 23.7269 101.944 21.5062C103.398 20.1501 105.05 19.5227 108.086 19.5351C109.418 19.5557 111.277 20.5382 112.727 22.245C115.417 25.4276 115.496 30.0467 112.958 33.2293Z" fill="#29B0E5"/>
</svg>
